2.593936083221435638e+02
2.829697475433349751e+01
1.908718423843383860e+01
1.709861667633056470e+01
1.586980354309081953e+01
1.481288457870483377e+01
1.379259621620178144e+01
1.292798920631408777e+01
1.229516918182373075e+01
1.181138127326965304e+01
1.130324000358581493e+01
1.096642901420593219e+01
1.059191716194152910e+01
1.044813002586364803e+01
9.962331247329711204e+00
1.005206107139587424e+01
9.667585763931274556e+00
9.542085323333740376e+00
9.426226005554198650e+00
9.353749961853027983e+00
9.237783827781676393e+00
9.035628089904784943e+00
9.001232557296752645e+00
8.973387775421143076e+00
8.873936133384704661e+00
8.895600943565368013e+00
8.882824773788451367e+00
8.759072160720824840e+00
8.424652628898620321e+00
8.330943431854247905e+00
8.272241039276122976e+00
8.297975726127624796e+00
8.229435343742370179e+00
8.153476376533507874e+00
8.155340132713318368e+00
8.010215444564819265e+00
7.933538289070129146e+00
7.916723957061767791e+00
7.908361854553223047e+00
7.816047329902648499e+00
7.773518576622008958e+00
7.704043307304382360e+00
7.695034317970275595e+00
7.655873236656188574e+00
7.704075307846069087e+00
7.628968491554259934e+00
7.563694667816162287e+00
7.535631418228149414e+00
7.513711380958556951e+00
7.529453377723694274e+00
