3.086092961502075127e+02
2.850907655715942468e+01
1.832410200119018384e+01
1.635082669258117605e+01
1.521995243072509751e+01
1.420937983512878411e+01
1.318153059959411699e+01
1.241746170997619636e+01
1.174100945472717328e+01
1.126952356338500927e+01
1.072051840782165577e+01
1.037172513008117747e+01
9.921349525451660156e+00
9.726788053512573029e+00
9.361044225692749521e+00
9.225727548599243377e+00
9.089877710342406658e+00
8.950459847450256134e+00
8.719368109703063752e+00
8.714939379692077992e+00
8.517363314628601856e+00
8.456348767280578826e+00
8.444513359069823366e+00
8.334720106124878569e+00
7.985079536437988068e+00
7.919540228843689356e+00
7.904451432228088770e+00
7.745082826614379634e+00
7.766642208099365341e+00
7.716870856285095392e+00
7.728092885017394664e+00
7.602774434089660360e+00
7.594974746704101776e+00
7.625188164710998251e+00
7.643522720336914489e+00
7.602292251586914240e+00
7.488388676643371156e+00
7.462470154762268493e+00
7.491783642768860219e+00
7.273572001457214498e+00
7.206125817298889125e+00
7.255947828292846680e+00
7.165081791877746298e+00
7.142430753707885493e+00
7.120818471908568981e+00
7.138121633529663335e+00
7.038798193931580016e+00
6.960615139007568786e+00
7.018695635795593191e+00
6.974403386116027725e+00
